<?xml version="1.0" encoding="utf-8"?>
<!-- Generator: Adobe Illustrator 15.1.0, SVG Export Plug-In . SVG Version: 6.00 Build 0)  -->
<!DOCTYPE svg PUBLIC "-//W3C//DTD SVG 1.1//EN" "http://www.w3.org/Graphics/SVG/1.1/DTD/svg11.dtd">
<svg version="1.1" id="Layer_1" xmlns="http://www.w3.org/2000/svg" xmlns:xlink="http://www.w3.org/1999/xlink" x="0px" y="0px"
	 width="21px" height="21px" viewBox="0 0 21 21" enable-background="new 0 0 21 21" xml:space="preserve">
<g>
	<path fill="#FFFFFF" d="M10.5,0.297c5.635,0,10.203,4.568,10.203,10.203c0,5.635-4.568,10.203-10.203,10.203
		c-5.635,0-10.203-4.568-10.203-10.203C0.297,4.865,4.865,0.297,10.5,0.297z"/>
	<path fill="#174889" d="M17.471,11.049L7.017,17.084V5.013L17.471,11.049z"/>
</g>
</svg>
