<?xml version="1.0" encoding="utf-8"?>
<!-- Generator: Adobe Illustrator 15.1.0, SVG Export Plug-In . SVG Version: 6.00 Build 0)  -->
<!DOCTYPE svg PUBLIC "-//W3C//DTD SVG 1.1//EN" "http://www.w3.org/Graphics/SVG/1.1/DTD/svg11.dtd">
<svg version="1.1" id="Layer_1" xmlns="http://www.w3.org/2000/svg" xmlns:xlink="http://www.w3.org/1999/xlink" x="0px" y="0px"
	 width="21px" height="21px" viewBox="0 0 21 21" enable-background="new 0 0 21 21" xml:space="preserve">
<path fill="#0070B0" d="M16.246,12.215c-0.576,1.93-2.104,3.455-4.031,4.031v-1.459c0-0.469-0.389-0.857-0.857-0.857H9.643
	c-0.469,0-0.857,0.389-0.857,0.857v1.459c-1.929-0.576-3.456-2.102-4.032-4.031h1.46c0.469,0,0.857-0.389,0.857-0.857V9.643
	c0-0.469-0.388-0.857-0.857-0.857h-1.46C5.33,6.856,6.856,5.33,8.786,4.753v1.46c0,0.469,0.388,0.857,0.857,0.857h1.714
	c0.469,0,0.857-0.388,0.857-0.857v-1.46c1.928,0.576,3.455,2.103,4.031,4.032h-1.459c-0.469,0-0.857,0.388-0.857,0.857v1.714
	c0,0.469,0.389,0.857,0.857,0.857H16.246z M20.787,9.643c0-0.469-0.389-0.857-0.857-0.857h-1.914c-0.656-2.88-2.922-5.144-5.801-5.8
	V1.07c0-0.469-0.389-0.857-0.857-0.857H9.643c-0.469,0-0.857,0.389-0.857,0.857v1.916c-2.88,0.656-5.144,2.92-5.8,5.8H1.07
	c-0.469,0-0.857,0.388-0.857,0.857v1.714c0,0.469,0.389,0.857,0.857,0.857h1.916c0.656,2.879,2.92,5.145,5.8,5.801v1.914
	c0,0.469,0.388,0.857,0.857,0.857h1.714c0.469,0,0.857-0.389,0.857-0.857v-1.914c2.879-0.656,5.145-2.922,5.801-5.801h1.914
	c0.469,0,0.857-0.389,0.857-0.857V9.643z"/>
</svg>
