<?xml version="1.0" encoding="utf-8"?>
<!-- Generator: Adobe Illustrator 15.1.0, SVG Export Plug-In . SVG Version: 6.00 Build 0)  -->
<!DOCTYPE svg PUBLIC "-//W3C//DTD SVG 1.1//EN" "http://www.w3.org/Graphics/SVG/1.1/DTD/svg11.dtd">
<svg version="1.1" id="Layer_1" xmlns="http://www.w3.org/2000/svg" xmlns:xlink="http://www.w3.org/1999/xlink" x="0px" y="0px"
	 width="50px" height="49px" viewBox="0 0 50 49" enable-background="new 0 0 50 49" xml:space="preserve">
<path fill="none" stroke="#0071B0" stroke-miterlimit="10" d="M3.22,1.085h43.055c1.042,0,1.885,0.844,1.885,1.886v43.212
	c0,1.041-0.844,1.885-1.885,1.885H3.22c-1.042,0-1.886-0.844-1.886-1.885V2.971C1.334,1.93,2.178,1.085,3.22,1.085z"/>
<path fill-rule="evenodd" clip-rule="evenodd" fill="#0071B0" d="M9.214,25.577v-1.562h31.781v1.562H9.214z"/>
<path fill-rule="evenodd" clip-rule="evenodd" fill="#0071B0" d="M9.214,15.577v-1.562h31.781v1.562H9.214z"/>
<path fill-rule="evenodd" clip-rule="evenodd" fill="#0071B0" d="M9.214,35.577v-1.562h31.781v1.562H9.214z"/>
</svg>
